Constants,0
Lowest temperature for flying (degrees C),10
Suger pool needed per bee (ml),0.002
Wax peak production,0.01
HPG production,0.01
Sugar Poll Extra Capacity (%),110
Pollen cells needed per brood cell,1
Honey cells needed per adult,0.1
HPG per feed,0.1
Wax needed per job,0.1
